5. AdderSimulation_r4/simulation/modelsim/msim_transcript
# Reading C:/altera/13.1/modelsim_ase/tcl/vsim/pref.tcl 
# ERROR: No extended dataflow license exists
# do AdderControl_run_msim_rtl_verilog.do 
# if {[file exists rtl_work]} {
# 	vdel -lib rtl_work -all
# }
# vlib rtl_work
# vmap work rtl_work
# Copying C:\altera\13.1\modelsim_ase\win32aloem/../modelsim.ini to modelsim.ini
# Modifying modelsim.ini
# ** Warning: Copied C:\altera\13.1\modelsim_ase\win32aloem/../modelsim.ini to modelsim.ini.
#          Updated modelsim.ini.
# 
# vlog -vlog01compat -work work +incdir+C:/Users/Charles/Dropbox/Imperial\ College/Final\ Year\ Project/OnlineArithmetic/5.\ AdderSimulation_r4 {C:/Users/Charles/Dropbox/Imperial College/Final Year Project/OnlineArithmetic/5. AdderSimulation_r4/AdderSimulation.v}
# Model Technology ModelSim ALTERA vlog 10.1d Compiler 2012.11 Nov  2 2012
# -- Compiling module AdderSimulation
# 
# Top level modules:
# 	AdderSimulation
# vlog -vlog01compat -work work +incdir+C:/Users/Charles/Dropbox/Imperial\ College/Final\ Year\ Project/OnlineArithmetic/5.\ AdderSimulation_r4 {C:/Users/Charles/Dropbox/Imperial College/Final Year Project/OnlineArithmetic/5. AdderSimulation_r4/online_adder_r4.v}
# Model Technology ModelSim ALTERA vlog 10.1d Compiler 2012.11 Nov  2 2012
# -- Compiling module online_adder_r4
# 
# Top level modules:
# 	online_adder_r4
# vlog -vlog01compat -work work +incdir+C:/Users/Charles/Dropbox/Imperial\ College/Final\ Year\ Project/OnlineArithmetic/5.\ AdderSimulation_r4 {C:/Users/Charles/Dropbox/Imperial College/Final Year Project/OnlineArithmetic/5. AdderSimulation_r4/tester_r4.v}
# Model Technology ModelSim ALTERA vlog 10.1d Compiler 2012.11 Nov  2 2012
# -- Compiling module tester_r4
# 
# Top level modules:
# 	tester_r4
# 
# Load canceled
vsim work.AdderSimulation
# vsim work.AdderSimulation 
# Loading work.AdderSimulation
# Loading work.online_adder_r4
# Loading work.tester_r4
run -all
# x =  0  0  0  0  0  0  0, y =  0  0  0  0  0  0  0 
# xi =  0, yi =  0, zi =  x
# xi =  0, yi =  0, zi =  0
# xi =  0, yi =  0, zi =  0
# xi =  0, yi =  0, zi =  0
# xi =  0, yi =  0, zi =  0
# xi =  0, yi =  0, zi =  0
# xi =  0, yi =  0, zi =  0
# xi =  0, yi =  0, zi =  0
# z =  0  0  0  0  0  0  0 
# Correct
# 
# x =  0  1  2 -3  3  0 -1, y =  0  2 -1 -3  3  2  2 
# xi =  1, yi =  2, zi =  0
# xi =  2, yi = -1, zi =  1
# xi = -3, yi = -3, zi = -1
# xi =  3, yi =  3, zi =  0
# xi =  0, yi =  2, zi = -1
# xi = -1, yi =  2, zi =  2
# xi =  0, yi =  0, zi =  2
# xi =  0, yi =  0, zi =  1
# z =  1 -1  0 -1  2  2  1 
# Correct
# 
# x =  0  0  0  0  1  2 -2, y =  0  0  0  0  1 -1  3 
# xi =  0, yi =  0, zi =  0
# xi =  0, yi =  0, zi =  0
# xi =  0, yi =  0, zi =  0
# xi =  1, yi =  1, zi =  0
# xi =  2, yi = -1, zi =  0
# xi = -2, yi =  3, zi =  2
# xi =  0, yi =  0, zi =  1
# xi =  0, yi =  0, zi =  1
# z =  0  0  0  0  2  1  1 
# Correct
# 
# x =  0  1  1  1  1  1  1, y =  0  1  1  1  1  1  1 
# xi =  1, yi =  1, zi =  0
# xi =  1, yi =  1, zi =  0
# xi =  1, yi =  1, zi =  2
# xi =  1, yi =  1, zi =  2
# xi =  1, yi =  1, zi =  2
# xi =  1, yi =  1, zi =  2
# xi =  0, yi =  0, zi =  2
# xi =  0, yi =  0, zi =  2
# z =  0  2  2  2  2  2  2 
# Correct
# 
# x =  0  2  2  2  2  2  2, y =  0  1  1  1  1  1  1 
# xi =  2, yi =  1, zi =  0
# xi =  2, yi =  1, zi =  1
# xi =  2, yi =  1, zi =  0
# xi =  2, yi =  1, zi =  0
# xi =  2, yi =  1, zi =  0
# xi =  2, yi =  1, zi =  0
# xi =  0, yi =  0, zi =  0
# xi =  0, yi =  0, zi = -1
# z =  1  0  0  0  0  0 -1 
# Correct
# 
# x =  0  2  2  2  2  2  2, y =  0  2  2  2  2  2  2 
# xi =  2, yi =  2, zi =  0
# xi =  2, yi =  2, zi =  1
# xi =  2, yi =  2, zi =  1
# xi =  2, yi =  2, zi =  1
# xi =  2, yi =  2, zi =  1
# xi =  2, yi =  2, zi =  1
# xi =  0, yi =  0, zi =  1
# xi =  0, yi =  0, zi =  0
# z =  1  1  1  1  1  1  0 
# Correct
# 
# x =  0  3  3  3  3  3  3, y =  0  3  3  3  3  3  3 
# xi =  3, yi =  3, zi =  0
# xi =  3, yi =  3, zi =  1
# xi =  3, yi =  3, zi =  3
# xi =  3, yi =  3, zi =  3
# xi =  3, yi =  3, zi =  3
# xi =  3, yi =  3, zi =  3
# xi =  0, yi =  0, zi =  3
# xi =  0, yi =  0, zi =  2
# z =  1  3  3  3  3  3  2 
# Correct
# 
# x = -1 -1 -1 -1 -1 -1 -1, y = -1 -2 -3 -3 -1  0  2 
# xi = -1, yi = -2, zi =  0
# xi = -1, yi = -3, zi = -1
# xi = -1, yi = -3, zi =  0
# xi = -1, yi = -1, zi = -1
# xi = -1, yi =  0, zi =  0
# xi = -1, yi =  2, zi = -2
# xi =  0, yi =  0, zi = -1
# xi =  0, yi =  0, zi =  1
# z = -1  0 -1  0 -2 -1  1 
# Correct
# 
# Break in Module AdderSimulation at C:/Users/Charles/Dropbox/Imperial College/Final Year Project/OnlineArithmetic/5. AdderSimulation_r4/AdderSimulation.v line 122
